ZB2BY9130,XB2B-XA2B_764_CPODA2016014
ABE7H20E000,ABE7_603_CPFJR16019
LU9RPB400,PB108388
LSS100200,LSS100200_iop
KBC16ZB1,DD210131
KBC16ZB1,DD210131
LV434207,ODAPB103803
TRV00210,ODATRV00210
PDC3BD2,PDC3HD2_DA
LV434128,ODALV434128
LV434011,ODALV434010
LV434063,ODALV434063
47127,PB104401
33540,PB106352
LV432957,PB103283
LV426662,PB114899
28106,ODA28106
LC3K09U7,ODA11189
WB1KB155,DF522634
CAK40P7S335,ODALC1K0610P7S335
LAD7C2,ODALAD7C2
LT4760M7S,PB111908
DA1TT170,ODA11583
LA7K0064,ODALA7K0064
LAD703Q,PB111596
LR9D110S,PB114691
DA1TT170,ODA11583
LUTC8001,PB108391
EVP2CNS323C4,EVP2CNS323C4_Image
EVP1MM,EVP1MM_Image
19010,ODA054382
21113,045666_SE_2
A9N18599,PB107926
19077,ODAPG133070
A9L16597,PB105276
A9FDB7616,PB115631
A9S60492,PB105269
19010,ODA054382
A9C64440,PB115442
A9A26971,PB104480
A9C52463,PB106238
A9E18074,PB105263
15152,058985N_SE
15126,ODA15126
15542,057302_SE
15482,ODAP111637
A9E18335,PB105257
14886,DB105977
21113,045666_SE_2
27062,PIO00018179
NSYSF20880M,PB501681
NSYTUP7035,PB501003
NSYS3HF10830P,PB500205
NSYCMT2560110,PB500438
NSYAUPG5G,PB500191
NSYAUPG5G,PB500191
IMT36173,P120646
NSYCVF156M115,PB501063
AT2PE1,815864
DF3FN80,ODADF100159
LSS100100,PIO00000828
HMIRTSCZLSPMZZ,PF143001
HMISTU855W,STU-STO_5774_CPSCT16004
HMIS85W,SCU_61980_CPODA2016001
XBTRT511,PF080510
XBTZGPDP,XBT-GH_5773_CPODA2016006
HMIPWC5D0E01A,PF110369
ZBY0101T,XB2BV-C_2002_CPODA2016044
BMXXCAUSBH018,PF121305
HMIZLYG03,HMIZ_62073_CPODA2016002
VW3CANTAP2,105221
SYCSPULRUCD2AM,DF511669
TLXCDUPDSOFS,OPC_Factory_Server_icon
IMT33115,p151358
RM4LG01Q,105859SE
RE8YG31BUTQ,105868SE
SR2MOD01,SR_531_CPFJR16054
XBTZGABE2,Generic image for cables
PAS44E2500,PF094926
VW3L1R000R30,PF140039
LC3K09U7,ODA11189
WB1KB155,DF522634
LP1SK0600SD,PB111642
CAK40P7S335,ODALC1K0610P7S335
LAD31,PB111906
GV3L80,GV3L80_Image
GV4LE80S6,PB114911
GV7V01,PB112381
GB2G210,ODAGB2G210
21113,045666_SE_2
LAD703Q,PB111596
LA7K0064,ODALA7K0064
LR9D110S,PB114691
LAD7C2,ODALAD7C2
LT4760M7S,PB111908
DA1TT170,ODA11583
DA1TT170,ODA11583
LUTC8001,PB108391
LAD9SD3,ODALAD9SD3
LZ8H2X4FU,PB114716
LUTC8001,PB108391
UNYSPUEVUV1X,Unity SoCollaborative
HMIS85W,SCU_61980_CPODA2016001
TCSWAAC13FB,PF100898
SR2MOD01,SR_531_CPFJR16054
SR2MOD01,SR_531_CPFJR16054
TWDXMT5,TWIDO_533_CPODA17006
STBSPU1130,115013
TM3SAK6RG,PF130371F
SR2MOD01,SR_531_CPFJR16054
UNYSPUEVUV1X,Unity SoCollaborative
XPSLCM1150,108001
EGX150,PB115427
METSEPM3255,PB108447
METSEPM55RSK,ODAMETSEPM51HK
A9MEM3565,PB115488
15443,PB112027
16092,ODA16075
15609,DB119003
15208,PB112025.eps
P765CD7A,PE86126
METSECT5CYL1,PB112453
PCS300D5N1,PB107873
BLRCH150A180B52,60419_rds-image-04
52452,PB502140
ABL8FUS02,ODADF100155
ABL8FUS02,ODADF100155
ABL1A02,PF152175
ABT7PDU002B,PF106458SE
ZB5AW843743,PF152989
ZBY9140,XB4_632_CPODA2016090
ZBRM01,PF100709
ZBY0101T,XB2BV-C_2002_CPODA2016044
XVLZ912,XVL_709_CPODA2016006
15126,ODA15126
ZB2BY9130,XB2B-XA2B_764_CPODA2016014
XPEZ931,XPE_622_CPODA2016029
XY2SB724,XY2SB_1533_CPSCT17001
XY2AZ3,XY2AZ3
XMPE06B2242,DG121045
XCSZ05,103037
XGHB445345,XG_1471_CPODA2016007
XZCP12V12L10,XZ_524_CPODA2016089
XVMC29M3T,121254
DL1BEMS,121259
XVCZ24,DF512995
ZBZ1902RA,PF101215
XVUZ12,XVU_61458_CPSCT16038
XVR3Z001,PF141508
HMIRTSCZLSPMZZ,PF143001
TLXCDUPDSOFS,OPC_Factory_Server_icon
SR2SFT02,SR_531_CPFJR16067
UNYSPUEVUV1X,Unity SoCollaborative
14190,PB100378
10208,ODAPB100413_SE-52r
SRVS10KI,SRVS10KI_image_of_product
ATV12P075M2319,PF080605
GV2AF4,PB111873
VW3A9612,PF152807
ATV71WU75N4ZH28,PF107482SE
VZ3V3104,F19_VENTILLATION_CPODA2016002
VW3A31852,PF150352
BMP1402F3NA2A,PF120358